{
    
  "data":  [
        
    {
            
      "casualties":  [
                
        {
                    
          "casualtyId":  31478,
                    
          "age":  30,
                    
          "class":  "Driver",
                    
          "severity":  2,
                    
          "mode":  "PedalCycle",
                    
          "ageBand":  "Adult"
        
                }
      
            ],
            
      "vehicles":  [
                
        {
                    
          "vehicleId":  46036,
                    
          "type":  "Car"
        
                },
                
        {
                    
          "vehicleId":  46037,
                    
          "type":  "Car"
        
                },
                
        {
                    
          "vehicleId":  46038,
                    
          "type":  "PedalCycle"
        
                }
      
            ],
            
      "accidentStatisticId":  26242,
            
      "id":  319343,
            
      "lat":  "51.628073",
            
      "lon":  "-0.049087",
            
      "location":  "Bounces Road junction with Exeter Road N9",
            
      "date":  "2017-02-06T01:42:00",
            
      "severity":  2,
            
      "borough":  "Enfield"
    
        }
  
    ],
    
  "page":  1,
    
  "nextPage":  2,
    
  "lastPage":  10,
    
  "pageSize":  1,
    
  "total":  10

}