{
    
  "data":  [
        
    {
            
      "casualties":  [
                
        {
                    
          "casualtyId":  26914,
                    
          "age":  78,
                    
          "class":  "Driver",
                    
          "severity":  2,
                    
          "mode":  "PedalCycle",
                    
          "ageBand":  "Adult"
        
                }
      
            ],
            
      "vehicles":  [
                
        {
                    
          "vehicleId":  39539,
                    
          "type":  "HeavyGoodsVehicle"
        
                },
                
        {
                    
          "vehicleId":  39540,
                    
          "type":  "PedalCycle"
        
                }
      
            ],
            
      "accidentStatisticId":  22517,
            
      "id":  315618,
            
      "lat":  "51.509402",
            
      "lon":  "-0.376845",
            
      "location":  "South Road junction with St Josephs Drive",
            
      "date":  "2017-11-09T08:56:00",
            
      "severity":  2,
            
      "borough":  "Ealing"
    
        }
  
    ],
    
  "page":  2,
    
  "nextPage":  3,
    
  "previousPage":  1,
    
  "lastPage":  10,
    
  "pageSize":  1,
    
  "total":  10

}