{
    
  "data":  [
        
    {
            
      "casualties":  [
                
        {
                    
          "casualtyId":  4013,
                    
          "age":  36,
                    
          "class":  "Driver",
                    
          "severity":  2,
                    
          "mode":  "PedalCycle",
                    
          "ageBand":  "Adult"
        
                }
      
            ],
            
      "vehicles":  [
                
        {
                    
          "vehicleId":  5961,
                    
          "type":  "LightGoodsVehicle"
        
                },
                
        {
                    
          "vehicleId":  5962,
                    
          "type":  "PedalCycle"
        
                }
      
            ],
            
      "accidentStatisticId":  3564,
            
      "id":  296665,
            
      "lat":  "51.549848",
            
      "lon":  "-0.128044",
            
      "location":  "Camden Road 20 metres west of junction with Hilldrop Crescent",
            
      "date":  "2017-08-29T06:50:00",
            
      "severity":  2,
            
      "borough":  "Islington"
    
        }
  
    ],
    
  "page":  10,
    
  "previousPage":  9,
    
  "lastPage":  10,
    
  "pageSize":  1,
    
  "total":  10

}