{
    
  "data":  [
        
    {
            
      "casualties":  [
                
        {
                    
          "casualtyId":  60448,
                    
          "age":  32,
                    
          "class":  "Driver",
                    
          "severity":  2,
                    
          "mode":  "PedalCycle",
                    
          "ageBand":  "Adult"
        
                }
      
            ],
            
      "vehicles":  [
                
        {
                    
          "vehicleId":  88117,
                    
          "vehicleType":  "HeavyGoodsVehicle"
        
                },
                
        {
                    
          "vehicleId":  88118,
                    
          "vehicleType":  "PedalCycle"
        
                }
      
            ],
            
      "accidentStatisticId":  50185,
            
      "id":  628500,
            
      "lat":  "51.502723",
            
      "lon":  "0.023766",
            
      "location":  "North Woolwich Road junction with Knights Road",
            
      "date":  "2017-02-09T13:25:00",
            
      "severity":  2,
            
      "borough":  "Newham"
    
        }
  
    ],
    
  "page":  1,
    
  "nextPage":  2,
    
  "lastPage":  20,
    
  "pageSize":  1,
    
  "total":  20

}